{
	"info": {
		"_postman_id": "5dc0d8e2-613d-4158-9097-6a0dcf74a8a0",
		"name": "New Collection",
		"schema": "https://schema.getpostman.com/json/collection/v2.1.0/collection.json",
		"_exporter_id": "29232616"
	},
	"item": [
		{
			"name": "Health Copy",
			"request": {
				"method": "GET",
				"header": [],
				"url": {
					"raw": "{{baseURL}}/actuator/health",
					"host": [
						"{{baseURL}}"
					],
					"path": [
						"actuator",
						"health"
					]
				}
			},
			"response": []
		},
		{
			"name": "Info Copy",
			"request": {
				"method": "GET",
				"header": [],
				"url": {
					"raw": "{{baseURL}}/actuator/info",
					"host": [
						"{{baseURL}}"
					],
					"path": [
						"actuator",
						"info"
					]
				}
			},
			"response": []
		},
		{
			"name": "Get all cars Copy",
			"request": {
				"method": "GET",
				"header": [],
				"url": {
					"raw": "{{baseURL}}/cars",
					"host": [
						"{{baseURL}}"
					],
					"path": [
						"cars"
					]
				}
			},
			"response": []
		},
		{
			"name": "New Request Copy",
			"request": {
				"method": "POST",
				"header": [],
				"body": {
					"mode": "raw",
					"raw": "{\r\n  \r\n  \"manufacturer\": \"Chevrolet2\",\r\n  \"model\": \"2024-2\",\r\n  \"build\": \"2024\"\r\n}",
					"options": {
						"raw": {
							"language": "json"
						}
					}
				},
				"url": {
					"raw": "{{baseURL}}/cars",
					"host": [
						"{{baseURL}}"
					],
					"path": [
						"cars"
					]
				}
			},
			"response": []
		}
	]
}